%YAML 1.1
%TAG !u! tag:unity3d.com,2011:
--- !u!1045 &1
EditorBuildSettings:
  m_ObjectHideFlags: 0
  serializedVersion: 2
  m_Scenes:
  - enabled: 1
    path: Assets/Scenes/Menu.unity
    guid: 5c2ef0ce789a74149bf2137833003ab4
  - enabled: 1
    path: Assets/Scenes/Level.unity
    guid: 2bf8a1656dc68c54f9fdd9b1ad49871f
  - enabled: 0
    path: Assets/Scenes/Level 2.unity
    guid: f81983d0291947647916b47adcbf528f
  - enabled: 0
    path: Assets/Scenes/Level 3.unity
    guid: 51ae4d7f452dc174aa43a8797f15d5b5
  - enabled: 1
    path: Assets/Scenes/ScoreScene.unity
    guid: da84f7fbd4532114b9eb6f4428d21088
  m_configObjects: {}
